{"hash":"a7ced5ffc22aa5dd0eabffb166e98c12e5967b9d","data":{"posts":{"totalCount":8,"pageInfo":{"totalPages":3,"currentPage":3},"edges":[{"node":{"id":"378869f04219ee64ff28f6c9899a600d","title":"Mac Pro 2019 Review","date":"March 11, 2019","summary":"Lorem ipsum dolor sit amet consectetur adipisicing elit. Hic rerum earum quos explicabo suscipit maxime iste qui nihil. Reiciendis asperiores minus necessitatibus","timeToRead":1,"path":"/mac-pro-2019-review"}},{"node":{"id":"8b7daaf267cd19e6555b82b40b187b8e","title":"Design for Developers","date":"March 7, 2019","summary":"Lorem ipsum dolor sit amet consectetur adipisicing elit. Hic rerum earum quos explicabo suscipit maxime iste qui nihil. Reiciendis asperiores minus necessitatibus","timeToRead":1,"path":"/design-for-developers"}}]}},"context":{}}