{"hash":"b916a408b47be950831ba184c81b1130d53126ef","data":{"posts":{"totalCount":8,"pageInfo":{"totalPages":3,"currentPage":2},"edges":[{"node":{"id":"0ef6697996d618491f708cd655f959c1","title":"Vue vs React Comparison","date":"March 27, 2019","summary":"Lorem ipsum dolor sit amet consectetur adipisicing elit. Hic rerum earum quos explicabo suscipit maxime iste qui nihil. Reiciendis asperiores minus necessitatibus","timeToRead":1,"path":"/vue-vs-react-comparison"}},{"node":{"id":"83a6db9029dcd194bfe0cb473dc7b737","title":"What I Ate for Breakfast","date":"March 21, 2019","summary":"Lorem ipsum dolor sit amet consectetur adipisicing elit. Hic rerum earum quos explicabo suscipit maxime iste qui nihil. Reiciendis asperiores minus necessitatibus","timeToRead":1,"path":"/what-i-ate-for-breakfast"}},{"node":{"id":"8707ccc2e93a14643842048913bd968a","title":"Freelance vs Full Time Work","date":"March 17, 2019","summary":"Lorem ipsum dolor sit amet consectetur adipisicing elit. Hic rerum earum quos explicabo suscipit maxime iste qui nihil. Reiciendis asperiores minus necessitatibus","timeToRead":1,"path":"/freelance-vs-full-time-work"}}]}},"context":{}}