{"hash":"b916a408b47be950831ba184c81b1130d53126ef","data":{"posts":{"totalCount":8,"pageInfo":{"totalPages":3,"currentPage":1},"edges":[{"node":{"id":"595d70f0e11012281a488130fb1c331d","title":"Introduction to Gridsome","date":"April 8, 2019","summary":"Gridsome is a Vue.js-powered, modern site generator for building the fastest possible websites for any Headless CMS, APIs or Markdown-files. Gridsome makes it easy and fun for developers to create fast, beautiful websites without needing to become a performance expert.","timeToRead":1,"path":"/introduction-to-gridsome"}},{"node":{"id":"f626b112c8575cb23aaf5ef200c2fd32","title":"How to Get Better At Coding","date":"April 5, 2019","summary":"Lorem ipsum dolor sit amet consectetur adipisicing elit. Hic rerum earum quos explicabo suscipit maxime iste qui nihil. Reiciendis asperiores minus necessitatibus","timeToRead":2,"path":"/how-to-get-better-at-coding"}},{"node":{"id":"7619d0a9f84ee79d62db906140503580","title":"Top 5 Static Site Generators in Vue","date":"April 3, 2019","summary":"Lorem ipsum dolor sit amet consectetur adipisicing elit. Hic rerum earum quos explicabo suscipit maxime iste qui nihil. Reiciendis asperiores minus necessitatibus","timeToRead":1,"path":"/top-5-static-site-generators-in-vue"}}]}},"context":{}}